module bitbucket.org/magatame/go-bank-backend

go 1.14

require (
	github.com/dgrijalva/jwt-go v3.2.0+incompatible
	github.com/gorilla/mux v1.7.4
	github.com/jinzhu/gorm v1.9.12
	github.com/lib/pq v1.1.1
	golang.org/x/crypto v0.0.0-20191205180655-e7c4368fe9dd
)
